aioprocessing==0.0.1
aiosocks==0.1.6
aioutils==0.3.10
alabaster==0.7.9
argh==0.26.2
astroid==1.4.6
asyncio-extras==1.1.1
asyncio-redis==0.14.2
asyncssh==1.5.6
asynctest==0.7.1
autopep8==1.2.4
Babel==2.3.4
backports.shutil-get-terminal-size==1.0.0
bcrypt==3.1.0
cffi==1.7.0
colorama==0.3.7
cryptography==1.4
cycler==0.10.0
dask==0.10.0
decorator==4.0.10
dill==0.2.5
Django==1.10
docutils==0.12
hiredis==0.2.0
idna==2.1
imagesize==0.7.1
IPy==0.83
ipython==4.2.0
ipython-genutils==0.1.0
Jinja2==2.8
jsonschema==2.5.1
lazy-object-proxy==1.2.2
libnacl==1.4.5
livereload==2.4.1
MarkupSafe==0.23
matplotlib==1.5.1
mock==2.0.0
mpmath==0.19
multiprocess==0.70.4
networkx==1.11
nose==1.3.7
numpy==1.11.0
pandas==0.18.1
paramiko==2.0.1
passlib==1.6.5
pathtools==0.1.2
pbr==1.10.0
pep8==1.7.0
pexpect==4.1.0
pickleshare==0.7.2
Pillow==3.2.0
plotly==1.12.1
port-for==0.3.1
ptyprocess==0.5.1
py-bcrypt==0.4
pyasn1==0.1.9
pycparser==2.14
Pygments==2.1.3
pylab==0.1.3
pylint==1.5.6
pyparsing==2.1.5
python-dateutil==2.5.3
pytz==2016.6.1
PyYAML==3.11
pyzmq==15.2.0
redis==2.10.5
requests==2.10.0
scikit-image==0.12.3
scikit-learn==0.17.1
scipy==0.17.1
seaborn==0.7.1
simplegeneric==0.8.1
simplejson==3.8.2
six==1.10.0
snowballstemmer==1.2.1
Sphinx==1.4.5
sphinx-autobuild==0.6.0
spur==0.3.19
SQLAlchemy==1.0.13
sqlalchemy-migrate==0.10.0
sqlparse==0.1.19
sympy==1.0
tasklocals==0.2
Tempita==0.5.2
toolz==0.8.0
tornado==4.3
traitlets==4.2.1
watchdog==0.8.3
wrapt==1.10.8
