value|label|description
0|debug| information for diagnostic
1|info| information about some events
2|warning| an alert message
3|error| an error was happened
4|critical| an important error was happened
